<?xml version="1.0" encoding="utf-8"?>
<!-- Generator: Adobe Illustrator 15.1.0, SVG Export Plug-In . SVG Version: 6.00 Build 0)  -->
<!DOCTYPE svg PUBLIC "-//W3C//DTD SVG 1.0//EN" "http://www.w3.org/TR/2001/REC-SVG-20010904/DTD/svg10.dtd">
<svg version="1.0" id="Layer_1" xmlns="http://www.w3.org/2000/svg" xmlns:xlink="http://www.w3.org/1999/xlink" x="0px" y="0px"
	 width="50px" height="11.875px" viewBox="0 0 50 11.875" enable-background="new 0 0 50 11.875" xml:space="preserve">
<path fill-rule="evenodd" clip-rule="evenodd" fill="#E6E6E6" d="M0.234,2.466h1.165v0.336h0.336v1.216H1.399v0.335H0.57v0.74H0.234
	V2.466L0.234,2.466z M0.57,2.802h0.829v1.216H0.57V2.802L0.57,2.802z"/>
<path fill-rule="evenodd" clip-rule="evenodd" fill="#E6E6E6" d="M2.512,2.466h0.829v0.336h0.335v1.216H3.341v0.335H2.512V4.018
	H2.176V2.802h0.336V2.466L2.512,2.466z M2.512,2.802h0.829v1.216H2.512V2.802L2.512,2.802z"/>
<path fill-rule="evenodd" clip-rule="evenodd" fill="#E6E6E6" d="M12.582,2.466h0.829V1.71h0.335v2.644h-1.165V4.018h-0.336V2.802
	h0.337L12.582,2.466L12.582,2.466z M12.582,2.802h0.829v1.216h-0.829V2.802L12.582,2.802z"/>
<path fill-rule="evenodd" clip-rule="evenodd" fill="#E6E6E6" d="M7.56,2.466h0.829v0.336h0.336v0.751H7.56v0.464h1.165v0.335H7.56
	V4.018H7.224V2.802H7.56V2.466L7.56,2.466z M7.56,2.802h0.829v0.416H7.56V2.802L7.56,2.802z"/>
<path fill-rule="evenodd" clip-rule="evenodd" fill="#E6E6E6" d="M10.605,2.466h0.829v0.336h0.336v0.751h-1.165v0.464h1.165v0.335
	h-1.165V4.018h-0.336V2.802h0.336V2.466L10.605,2.466z M10.605,2.802h0.829v0.416h-0.829V2.802L10.605,2.802z"/>
<polygon fill-rule="evenodd" clip-rule="evenodd" fill="#E6E6E6" points="4.453,4.018 4.946,4.018 4.946,2.802 5.282,2.802 
	5.282,2.466 5.67,2.466 5.67,2.802 6.006,2.802 6.006,4.018 6.499,4.018 6.499,2.466 6.835,2.466 6.835,4.018 6.499,4.018 
	6.499,4.354 6.006,4.354 6.006,4.018 5.67,4.018 5.67,2.802 5.282,2.802 5.282,4.018 4.946,4.018 4.946,4.354 4.453,4.354 
	4.453,4.018 4.117,4.018 4.117,2.466 4.453,2.466 4.453,4.018 "/>
<polygon fill-rule="evenodd" clip-rule="evenodd" fill="#E6E6E6" points="9.942,2.466 9.942,2.802 9.476,2.802 9.476,4.354 
	9.14,4.354 9.14,2.466 9.942,2.466 "/>
<polygon fill-rule="evenodd" clip-rule="evenodd" fill="#E6E6E6" points="13.411,6.366 13.747,6.366 13.747,6.702 13.411,6.702 
	13.411,7.917 13.069,7.917 13.069,8.585 12.582,8.585 12.582,8.992 12.246,8.992 12.246,8.585 12.582,8.585 12.582,7.917 
	12.246,7.917 12.246,6.702 11.91,6.702 11.91,6.366 12.246,6.366 12.246,6.702 12.582,6.702 12.582,7.917 13.069,7.917 
	13.069,6.702 13.411,6.702 13.411,6.366 "/>
<path fill-rule="evenodd" clip-rule="evenodd" fill="#E6E6E6" d="M10.278,6.702h0.829v1.215h-0.829V6.702L10.278,6.702z
	 M10.278,6.366h0.829v0.336h0.336v1.215h-0.336v0.336H9.942V5.62h0.336V6.366L10.278,6.366z"/>
<path fill-rule="evenodd" clip-rule="evenodd" fill="#2FB458" d="M41.565,0.185c0.533,0,1.034,0,1.566,0
	c-0.218,0.141-0.291,0.199-0.385,0.348c-0.067,0.106-0.084,0.308-0.097,0.489c-0.092,2.091-0.035,4.198-0.048,6.289
	c0.008,0.569,0.231,0.503,0.973,0.481c-0.111,0.095-0.293,0.281-0.434,0.362c-0.668,0-1.307-0.015-1.975-0.015
	c0.252-0.26,0.381-0.428,0.363-1.078c0.014-2.186-0.073-4.283,0.061-6.387c-0.313,0.009-0.599,0.004-0.912,0.014
	C40.975,0.537,41.255,0.322,41.565,0.185L41.565,0.185z"/>
<path fill-rule="evenodd" clip-rule="evenodd" fill="#6B696B" d="M48.359,2.893c0.073,0,0.484,0,0.557,0l-0.037,0.103
	C48.866,3,48.854,3.006,48.841,3.011c0.009-0.038,0.021-0.066-0.007-0.073h-0.131c-0.008,0.125-0.013,0.354-0.013,0.518
	c-0.006,0.054,0.054,0.051,0.114,0.063L48.751,3.55c-0.091,0-0.181-0.002-0.271-0.002c0.044-0.023,0.05-0.058,0.048-0.146
	c-0.003-0.147,0.003-0.336,0.01-0.465c-0.043-0.001-0.082,0-0.124,0.001c-0.021,0.002-0.035,0.022-0.049,0.057l-0.041,0.017
	L48.359,2.893L48.359,2.893z"/>
<path fill-rule="evenodd" clip-rule="evenodd" fill="#EF4136" d="M26.307,2.918c1.818,0,2.767,1.194,2.852,2.594
	c0.084,1.395-1.079,2.642-2.503,2.792c-1.711,0.18-3.207-0.986-3.207-2.686C23.449,4.131,24.733,2.918,26.307,2.918L26.307,2.918z
	 M28.024,5.692c0.104,1.025-0.244,1.978-1.175,2.191c-0.952,0.218-1.962-0.563-2.215-1.891c-0.277-1.456,0.181-2.415,1.08-2.65
	C26.78,3.063,27.866,4.125,28.024,5.692L28.024,5.692z"/>
<path fill-rule="evenodd" clip-rule="evenodd" fill="#FFDF1C" d="M32.466,2.918c1.798,0,2.734,1.194,2.818,2.594
	c0.083,1.395-1.066,2.642-2.474,2.792c-1.691,0.18-3.169-0.986-3.169-2.686C29.642,4.131,30.91,2.918,32.466,2.918L32.466,2.918z
	 M34.164,5.692c0.103,1.025-0.241,1.978-1.161,2.191c-0.941,0.218-1.939-0.563-2.189-1.891c-0.273-1.456,0.179-2.415,1.067-2.65
	C32.934,3.063,34.007,4.125,34.164,5.692L34.164,5.692z"/>
<path fill-rule="evenodd" clip-rule="evenodd" fill="#EF4136" d="M48.023,4.484c0.176-0.072,0.188-0.085,0.124-0.27
	c-0.37-1.056-1.763-1.626-2.948-1.131c-0.936,0.39-1.613,1.379-1.613,2.486c0,1.491,1.076,2.816,2.538,2.816
	c0.67,0,1.146-0.093,1.57-0.362c0.091-0.084,0.604-0.494,0.608-0.582c0.001-0.021-0.072,0.044-0.184,0.104
	c-0.33,0.174-0.825,0.241-1.214,0.248c-0.786,0.015-1.413-0.521-1.822-1.156c-0.264-0.41-0.434-0.877-0.476-1.379
	c-0.065-0.772,0.123-1.66,0.995-1.877c0.58-0.146,1.13,0.18,1.343,0.739c0.097,0.253,0.039,0.385-0.195,0.482l-2.099,0.876
	l0.716,0.046C46.219,5.169,47.172,4.837,48.023,4.484L48.023,4.484z"/>
<path fill-rule="evenodd" clip-rule="evenodd" fill="#0075BF" d="M21.789,2.17l0.817-0.833c-1.388-1.149-3.767-1.299-5.344-0.502
	c-1.372,0.693-2.369,2.07-2.417,3.608c-0.051,1.619,0.89,2.899,1.844,3.543c1.576,1.063,4.309,0.826,5.955-0.005l0-0.154l0,0V6.131
	l0.383-0.449h-2.398l-0.888,0.5l1.725-0.051c0,0.483,0,1.012,0,1.495c0,0.213,0.002,0.247-0.347,0.359
	c-0.492,0.13-1.047,0.155-1.555,0.112c-1.722-0.144-3.035-1.504-3.346-3.201c-0.295-1.61,0.464-3.134,1.749-3.763
	c0.627-0.307,1.379-0.451,2.195-0.19c0.511,0.164,0.975,0.458,1.379,0.865l-0.281,0.512L21.789,2.17L21.789,2.17z"/>
<path fill-rule="evenodd" clip-rule="evenodd" fill="#0075BF" d="M38.735,8.513c0.112,0.082,0.23,0.163,0.351,0.239
	c0.658,0.416,0.868,0.926,0.814,1.396c-0.064,0.566-0.608,1.013-1.54,1.069c-0.994,0.061-2.332-0.333-2.084-1.641
	c0.132-0.696,1.057-1.057,1.82-1.082C38.309,8.488,38.523,8.506,38.735,8.513L38.735,8.513z M40.983,3.069l-0.67,0.434h-0.762
	c0.322,0.225,0.568,0.549,0.704,0.91c0.146,0.384,0.165,0.81,0.018,1.203c-0.139,0.37-0.42,0.688-0.833,0.931
	c-0.235,0.138-0.354,0.313-0.367,0.479c-0.038,0.489,0.559,0.843,0.904,1.102c0.755,0.565,1.05,1.492,0.55,2.388
	c-0.478,0.856-1.614,1.237-2.821,1.242c-1.5-0.007-2.446-0.693-2.496-1.629c-0.063-1.209,1.177-1.784,2.297-1.915
	c0.313-0.037,0.594-0.031,0.857-0.013c-0.396-0.261-0.545-0.793-0.342-1.148c0.053-0.092,0.02-0.061-0.081-0.045
	c-0.916,0.138-1.86-0.46-2.081-1.364c-0.112-0.459-0.043-0.938,0.132-1.313c0.38-0.815,1.224-1.268,2.16-1.268
	C39.126,3.062,40.028,3.062,40.983,3.069L40.983,3.069z M39.298,5.058c0.119,0.724-0.064,1.41-0.719,1.591
	c-0.67,0.186-1.41-0.336-1.649-1.269c-0.261-1.023,0.01-1.673,0.641-1.869C38.317,3.279,39.115,3.953,39.298,5.058L39.298,5.058z"/>
<path fill-rule="evenodd" clip-rule="evenodd" fill="#6B696B" d="M48.938,2.893c0.013,0,0.024,0,0.036,0v0h0.141
	c0.035,0,0.037,0.017,0.049,0.049c0.049,0.136,0.161,0.469,0.162,0.467c0.046-0.126,0.116-0.313,0.171-0.443
	c-0.001-0.015-0.016-0.016-0.034-0.015c-0.025,0-0.051,0-0.076,0c0,0,0.001-0.001,0.002-0.001c-0.001,0-0.002,0-0.003,0
	c0.008-0.005,0.016-0.011,0.023-0.017c0.019-0.013,0.036-0.027,0.054-0.041c0,0,0.002,0,0.003,0l0,0c0.071,0,0.131,0,0.202,0l0,0
	c0.016,0,0.032,0,0.048,0c-0.005,0.01-0.009,0.019-0.013,0.029c-0.035,0.022-0.026,0.081-0.023,0.126
	c0.008,0.118,0.021,0.235,0.03,0.353c0.005,0.056,0.017,0.105,0.057,0.148c-0.038,0.011-0.063,0.015-0.114,0.015
	c-0.082,0-0.104-0.052-0.114-0.144c-0.008-0.127-0.017-0.255-0.024-0.382c-0.054,0.135-0.104,0.261-0.152,0.398
	c-0.012,0.033-0.016,0.036-0.004,0.068L49.21,3.563l-0.187-0.534c-0.013,0.124-0.025,0.284-0.032,0.407
	c-0.003,0.06,0.007,0.075,0.107,0.08L49.04,3.55c-0.091,0-0.06-0.002-0.15-0.002c0.043-0.03,0.056-0.058,0.06-0.146
	c0.009-0.135,0.024-0.331,0.041-0.46l-0.002-0.003c-0.037-0.001-0.065-0.006-0.111,0.013L48.938,2.893L48.938,2.893z"/>
</svg>
