<?xml version="1.0" encoding="utf-8"?>
<!-- Generator: Adobe Illustrator 15.1.0, SVG Export Plug-In . SVG Version: 6.00 Build 0)  -->
<!DOCTYPE svg PUBLIC "-//W3C//DTD SVG 1.1//EN" "http://www.w3.org/Graphics/SVG/1.1/DTD/svg11.dtd">
<svg version="1.1" id="Layer_1" xmlns="http://www.w3.org/2000/svg" xmlns:xlink="http://www.w3.org/1999/xlink" x="0px" y="0px"
	 width="50px" height="32px" viewBox="0 0 50 32" enable-background="new 0 0 50 32" xml:space="preserve">
<g>
	<g>
		<path fill="#0071BC" d="M11.338,31.5C5.362,31.5,0.5,26.639,0.5,20.662v-9.323C0.5,5.362,5.362,0.5,11.338,0.5h27.323
			C44.639,0.5,49.5,5.362,49.5,11.338v9.324c0,5.977-4.861,10.838-10.838,10.838H11.338z"/>
		<path fill="#282828" d="M38.661,1C44.361,1,49,5.638,49,11.338v9.324C49,26.361,44.361,31,38.662,31H11.338
			C5.638,31,1,26.361,1,20.662v-9.323C1,5.638,5.638,1,11.338,1H38.661 M38.661,0H11.338C5.076,0,0,5.076,0,11.339v9.323
			C0,26.924,5.076,32,11.338,32h27.324C44.924,32,50,26.924,50,20.662v-9.324C50,5.076,44.924,0,38.661,0L38.661,0z"/>
	</g>
</g>
<text transform="matrix(1 0 0 1 11.1016 19.6338)" font-family="'ArialMT'" font-size="12.6203">INFO</text>
</svg>
